# Blender MTL File: 'None'
# Material Count: 1

newmtl m_f3080a85-68c1-340a-8e50-faa3f6630492
Ns 0.000000
Ka 1.000000 1.000000 1.000000
Kd 0.800000 0.800000 0.800000
Ks 0.000000 0.000000 0.000000
Ke 0.000000 0.000000 0.000000
Ni 1.450000
d 1.000000
illum 1
map_Kd #0
